{
  "cpu_cores":1,
  "memory_gb":1,
  "auth_enabled": true,
  "service_name": "iris-model-service",
  "workspace_name": "iris-databricks-ws",
  "subscription_id": "0f101778-d255-42aa-817d-531d4181f626",
  "resource_group": "iris-databricks",
  "env_name": "AzureML-sklearn-1.0-ubuntu20.04-py38-cpu",
  "conda_dep_pkgs": ["joblib","scikit-learn"],
  "pip_pkgs": ["azureml-defaults", "inference-schema"],
  "entry_script": "../score.py",
  "prod_webservice_name": "iris-model-prod",
}
